<svg version="1.1" xmlns="http://www.w3.org/2000/svg" width="16" height="16" viewBox="0 0 55 64">
<title>facebook-square</title>
<path d="M44.571 4.571c5.679 0 10.286 4.607 10.286 10.286v34.286c0 5.679-4.607 10.286-10.286 10.286h-6.714v-21.25h7.107l1.071-8.286h-8.179v-5.286c0-2.393 0.643-4 4.107-4l4.357-0.036v-7.393c-0.75-0.107-3.357-0.321-6.357-0.321-6.321 0-10.679 3.857-10.679 10.929v6.107h-7.143v8.286h7.143v21.25h-19c-5.679 0-10.286-4.607-10.286-10.286v-34.286c0-5.679 4.607-10.286 10.286-10.286h34.286z"></path>
</svg>
